vvd/project_1/project_1.sim/sim_1/behav/xsim/fir.vcd
$date
   Mon Oct 23 12:12:58 2023
$end
$version
  2022.1
$end
$timescale
  1ps
$end
$scope module fir_tb $end
$var wire 1 ! awready $end
$var wire 1 " wready $end
$var reg 1 # awvalid $end
$var reg 12 $ awaddr [11:0] $end
$var reg 1 % wvalid $end
$var reg 32 & wdata [31:0] $end
$var wire 1 ' arready $end
$var reg 1 ( rready $end
$var reg 1 ) arvalid $end
$var reg 12 * araddr [11:0] $end
$var wire 1 + rvalid $end
$var wire 32 , rdata [31:0] $end
$var reg 1 - ss_tvalid $end
$var reg 32 . ss_tdata [31:0] $end
$var reg 1 / ss_tlast $end
$var wire 1 0 ss_tready $end
$var reg 1 1 sm_tready $end
$var wire 1 2 sm_tvalid $end
$var wire 32 3 sm_tdata [31:0] $end
$var wire 1 4 sm_tlast $end
$var reg 1 5 axis_clk $end
$var reg 1 6 axis_rst_n $end
$var wire 4 7 tap_WE [3:0] $end
$var wire 1 8 tap_EN $end
$var wire 32 9 tap_Di [31:0] $end
$var wire 12 : tap_A [11:0] $end
$var wire 32 ; tap_Do [31:0] $end
$var wire 4 < data_WE [3:0] $end
$var wire 1 = data_EN $end
$var wire 32 > data_Di [31:0] $end
$var wire 12 ? data_A [11:0] $end
$var wire 32 @ data_Do [31:0] $end
$var reg 32 A data_length [31:0] $end
$var integer 32 B Din [31:0] $end
$var integer 32 C golden [31:0] $end
$var integer 32 D input_data [31:0] $end
$var integer 32 E golden_data [31:0] $end
$var integer 32 F m [31:0] $end
$var integer 32 G i [31:0] $end
$var integer 32 H k [31:0] $end
$var reg 1 I error $end
$var reg 1 J error_coef $end
$var reg 1 K status_error $end
$var integer 32 L timeout [31:0] $end
$scope module fir_DUT $end
$var wire 1 ! awready $end
$var wire 1 " wready $end
$var wire 1 M awvalid $end
$var wire 12 N awaddr [11:0] $end
$var wire 1 O wvalid $end
$var wire 32 P wdata [31:0] $end
$var wire 1 ' arready $end
$var wire 1 Q rready $end
$var wire 1 R arvalid $end
$var wire 12 S araddr [11:0] $end
$var wire 1 + rvalid $end
$var wire 32 , rdata [31:0] $end
$var wire 1 T ss_tvalid $end
$var wire 32 U ss_tdata [31:0] $end
$var wire 1 V ss_tlast $end
$var wire 1 0 ss_tready $end
$var wire 1 W sm_tready $end
$var wire 1 2 sm_tvalid $end
$var wire 32 3 sm_tdata [31:0] $end
$var wire 1 4 sm_tlast $end
$var wire 4 7 tap_WE [3:0] $end
$var wire 1 8 tap_EN $end
$var wire 32 9 tap_Di [31:0] $end
$var wire 12 : tap_A [11:0] $end
$var wire 32 ; tap_Do [31:0] $end
$var wire 4 < data_WE [3:0] $end
$var wire 1 = data_EN $end
$var wire 32 > data_Di [31:0] $end
$var wire 12 ? data_A [11:0] $end
$var wire 32 @ data_Do [31:0] $end
$var wire 1 X axis_clk $end
$var wire 1 Y axis_rst_n $end
$var reg 5 Z \genblk1.curr_state  [4:0] $end
$var reg 5 [ \genblk1.next_state  [4:0] $end
$var reg 12 \ \genblk1.addr_buf  [11:0] $end
$var reg 12 ] \genblk1.data_addr_buf  [11:0] $end
$var reg 32 ^ \genblk1.write_buf  [31:0] $end
$var reg 32 _ \genblk1.data_write_buf  [31:0] $end
$var reg 32 ` \genblk1.read_buf  [31:0] $end
$var reg 1 a \genblk1.read_flag1  $end
$var reg 1 b \genblk1.read_flag2  $end
$var reg 1 c \genblk1.EN_flag  $end
$var reg 1 d \genblk1.data_EN_flag  $end
$var reg 1 e \genblk1.WE_flag  $end
$var reg 1 f \genblk1.data_WE_flag  $end
$var reg 32 g \genblk1.ap_signals  [31:0] $end
$var reg 32 h \genblk1.length  [31:0] $end
$var reg 1 i \genblk1.ap_flag  $end
$var reg 1 j \genblk1.length_flag  $end
$var reg 4 k \genblk1.SftReg_ptr  [3:0] $end
$var reg 1 l \genblk1.SftReg_full_flag  $end
$var reg 32 m \genblk1.AddIn_buf  [31:0] $end
$var reg 32 n \genblk1.acc  [31:0] $end
$var reg 1 o \genblk1.ss_tready_buf  $end
$var reg 1 p \genblk1.sm_tvalid_buf  $end
$var reg 32 q \genblk1.sm_tdata_buf  [31:0] $end
$var reg 32 r \genblk1.cnt  [31:0] $end
$var reg 1 s \genblk1.last_data_flag  $end
$var reg 1 t \genblk1.finish_flag  $end
$var reg 4 u \genblk1.RST_BRAM_cnt  [3:0] $end
$upscope $end
$scope module tap_RAM $end
$var wire 1 v CLK $end
$var wire 4 7 WE [3:0] $end
$var wire 1 8 EN $end
$var wire 32 9 Di [31:0] $end
$var wire 32 ; Do [31:0] $end
$var wire 12 : A [11:0] $end
$var reg 12 w r_A [11:0] $end
$var reg 32 x Temp_D [31:0] $end
$upscope $end
$scope module data_RAM $end
$var wire 1 y CLK $end
$var wire 4 < WE [3:0] $end
$var wire 1 = EN $end
$var wire 32 > Di [31:0] $end
$var wire 32 @ Do [31:0] $end
$var wire 12 ? A [11:0] $end
$var reg 12 z r_A [11:0] $end
$var reg 32 { Temp_D [31:0] $end
$upscope $end
$scope task config_write $end
$var reg 12 | addr [11:0] $end
$var reg 32 } data [31:0] $end
$upscope $end
$scope task config_read_check $end
$var reg 12 ~ addr [11:0] $end
$var reg 32 !! exp_data [31:0] $end
$var reg 32 "! mask [31:0] $end
$upscope $end
$scope task config_readbit_check $end
$var reg 12 #! addr [11:0] $end
$var reg 32 $! exp_data [31:0] $end
$var reg 32 %! mask [31:0] $end
$upscope $end
$scope task ss $end
$var reg 32 &! in1 [31:0] $end
$upscope $end
$scope task sm $end
$var reg 32 '! in2 [31:0] $end
$var reg 32 (! pcnt [31:0] $end
$upscope $end
$upscope $end
$enddefinitions $end
#0
$dumpvars
x!
bx !!
x"
bx "!
x#
b0 #!
bx $
b100 $!
x%
b100 %!
bx &
b1 &!
0'
bx '!
0(
bx (!
0)
bx *
x+
bx ,
1-
b1 .
0/
00
11
02
b0 3
z4
05
06
bx 7
x8
bx 9
bx00 :
bx ;
bx <
x=
bx >
b0 ?
bx @
b1001011000 A
b11111111111111111011000111100000 B
b11111111111111111011000111100001 C
b1 D
b1 E
b1001011000 F
b0 G
bx H
0I
0J
0K
b11110100001001000000 L
xM
bx N
xO
bx P
0Q
0R
bx S
1T
b1 U
0V
1W
0X
0Y
b0 Z
b0 [
bx \
b0 ]
bx ^
bx _
bx `
xa
xb
xc
xd
xe
xf
b100 g
bx h
xi
xj
b0 k
0l
b0 m
bx n
0o
0p
b0 q
b0 r
xs
0t
bx u
0v
bx w
bx x
0y
bx z
bx {
bx |
bx }
bx ~
$end
#5000
1'
1)
b0 *
15
bx ;
bx @
b11110100001000111111 L
1R
b0 S
1X
b0 Z
b0 ]
b100 g
b0 k
0l
b0 m
0o
0p
b0 q
b0 r
0t
1v
bx00 w
1y
b0 z
#10000
05
0X
0v
0y
#15000
0'
1(
0)
15
16
b1111 <
1=
b0 >
b100 ?
bx @
b11110100001000111110 L
1Q
0R
1X
1Y
b0 Z
b1 ]
b0 _
0a
xb
1d
1f
1i
0j
1v
bx00 w
1y
b0 z
#20000
05
0X
0v
0y
#25000
0(
0+
b100 ,
15
b1000 ?
b0 @
b11110100001000111101 L
0Q
1X
b0 Z
b10 ]
b0 _
b100 `
1a
0b
1d
1f
1v
bx00 w
1y
b100 z
#30000
05
0X
0v
0y
#35000
b0 #!
b100 $!
b100 %!
0(
0)
1+
15
b1100 ?
b0 @
b11110100001000111100 L
1X
b0 Z
b11 ]
b0 _
0a
1b
1d
1f
1v
bx00 w
1y
b1000 z
#40000
05
0X
0v
0y
#45000
1'
1)
b0 *
0+
15
b10000 ?
b0 @
b11110100001000111011 L
1R
1X
b0 Z
b100 ]
b0 _
0a
0b
1d
1f
1v
bx00 w
1y
b1100 z
#50000
05
0X
0v
0y
#55000
0'
1(
0)
15
b10100 ?
b0 @
b11110100001000111010 L
1Q
0R
1X
b0 Z
b101 ]
b0 _
0a
0b
1d
1f
1i
0j
1v
bx00 w
1y
b10000 z
#60000
05
0X
0v
0y
#65000
15
b11000 ?
b0 @
b11110100001000111001 L
1X
b0 Z
b110 ]
b0 _
b100 `
1a
0b
1d
1f
1v
bx00 w
1y
b10100 z
#70000
05
0X
0v
0y
#75000
1+
15
b11100 ?
b0 @
b11110100001000111000 L
1X
b0 Z
b111 ]
b0 _
b100 `
1a
1b
1d
1f
1v
bx00 w
1y
b11000 z
#80000
05
0X
0v
0y
#85000
0!
0"
0#
0%
0(
15
b100000 ?
b0 @
b11110100001000110111 L
0M
0O
0Q
1X
b0 Z
b1000 ]
b0 _
b100 `
1a
1b
1d
1f
1v
bx00 w
1y
b11100 z
b10000 |
b1001011000 }
#90000
05
0X
0v
0y
#95000
1!
1#
b10000 $
15
b100100 ?
b0 @
b11110100001000110110 L
1M
b10000 N
1X
b0 Z
b1001 ]
b0 _
0a
1b
1d
1f
1v
bx00 w
1y
b100000 z
#100000
05
0X
0v
0y
#105000
0!
1"
0#
1%
b1001011000 &
0+
15
b101000 ?
b0 @
b11110100001000110101 L
0M
1O
b1001011000 P
1X
b0 Z
b1010 ]
b0 _
0a
0b
1d
1f
0i
1j
1v
bx00 w
1y
b100100 z
#110000
05
0X
0v
0y
#115000
0"
0#
0%
15
b0 ?
b0 @
b0 H
b11110100001000110100 L
0O
1X
b0 Z
b0 ]
b0 _
0a
0b
1d
1f
b1001011000 h
1v
bx00 w
1y
b101000 z
b100000 |
b0 }
#120000
05
0X
0v
0y
#125000
1!
1#
b100000 $
15
b100 ?
b0 @
b11110100001000110011 L
1M
b100000 N
1X
b0 Z
b1 ]
b0 _
0a
0b
1d
1f
1v
bx00 w
1y
b0 z
#130000
05
0X
0v
0y
#135000
0!
1"
0#
1%
b0 &
15
b0 :
b1000 ?
b0 @
b11110100001000110010 L
0M
1O
b0 P
1X
b0 Z
b0 \
b10 ]
b0 _
0a
0b
1d
1f
0i
0j
1v
bx00 w
1y
b100 z
#140000
05
0X
0v
0y
#145000
0"
0#
0%
15
b1111 7
18
b0 9
bx ;
b1100 ?
b0 @
b1 H
b11110100001000110001 L
0O
1X
b0 Z
b11 ]
b0 ^
b0 _
0a
0b
1c
1d
1e
1f
1v
b0 w
1y
b1000 z
b100100 |
b11111111111111111111111111110110 }
#150000
05
0X
0v
0y
#155000
1!
1#
b100100 $
15
b0 ;
b10000 ?
b0 @
b11110100001000110000 L
1M
b100100 N
1X
b0 Z
b100 ]
b0 _
0a
0b
1d
1f
1v
b0 w
1y
b1100 z
#160000
05
0X
0v
0y
#165000
0!
1"
0#
1%
b11111111111111111111111111110110 &
15
b100 :
b10100 ?
b0 @
b11110100001000101111 L
0M
1O
b11111111111111111111111111110110 P
1X
b0 Z
b1 \
b101 ]
b0 _
0a
0b
1d
1f
0i
0j
1v
b0 w
1y
b10000 z
#170000
05
0X
0v
0y
#175000
0"
0#
0%
15
b11111111111111111111111111110110 9
b0 ;
b11000 ?
b0 @
b10 H
b11110100001000101110 L
0O
1X
b0 Z
b110 ]
b11111111111111111111111111110110 ^
b0 _
0a
0b
1c
1d
1e
1f
1v
b100 w
1y
b10100 z
b101000 |
b11111111111111111111111111110111 }
#180000
05
0X
0v
0y
#185000
1!
1#
b101000 $
15
b11111111111111111111111111110110 ;
b11100 ?
b0 @
b11110100001000101101 L
1M
b101000 N
1X
b0 Z
b111 ]
b0 _
0a
0b
1d
1f
1v
b100 w
1y
b11000 z
#190000
05
0X
0v
0y
#195000
0!
1"
0#
1%
b11111111111111111111111111110111 &
15
b1000 :
b100000 ?
b0 @
b11110100001000101100 L
0M
1O
b11111111111111111111111111110111 P
1X
b0 Z
b10 \
b1000 ]
b0 _
0a
0b
1d
1f
0i
0j
1v
b100 w
1y
b11100 z
#200000
05
0X
0v
0y
#205000
0"
0#
0%
15
b11111111111111111111111111110111 9
b11111111111111111111111111110110 ;
b100100 ?
b0 @
b11 H
b11110100001000101011 L
0O
1X
b0 Z
b1001 ]
b11111111111111111111111111110111 ^
b0 _
0a
0b
1c
1d
1e
1f
1v
b1000 w
1y
b100000 z
b101100 |
b10111 }
#210000
05
0X
0v
0y
#215000
1!
1#
b101100 $
15
b11111111111111111111111111110111 ;
b101000 ?
b0 @
b11110100001000101010 L
1M
b101100 N
1X
b0 Z
b1010 ]
b0 _
0a
0b
1d
1f
1v
b1000 w
1y
b100100 z
#220000
05
0X
0v
0y
#225000
0!
1"
0#
1%
b10111 &
15
b1100 :
b0 ?
b0 @
b11110100001000101001 L
0M
1O
b10111 P
1X
b0 Z
b11 \
b0 ]
b0 _
0a
0b
1d
1f
0i
0j
1v
b1000 w
1y
b101000 z
#230000
05
0X
0v
0y
#235000
0"
0#
0%
15
b10111 9
b11111111111111111111111111110111 ;
b100 ?
b0 @
b100 H
b11110100001000101000 L
0O
1X
b0 Z
b1 ]
b10111 ^
b0 _
0a
0b
1c
1d
1e
1f
1v
b1100 w
1y
b0 z
b110000 |
b111000 }
#240000
05
0X
0v
0y
#245000
1!
1#
b110000 $
15
b10111 ;
b1000 ?
b0 @
b11110100001000100111 L
1M
b110000 N
1X
b0 Z
b10 ]
b0 _
0a
0b
1d
1f
1v
b1100 w
1y
b100 z
#250000
05
0X
0v
0y
#255000
0!
1"
0#
1%
b111000 &
15
b10000 :
b1100 ?
b0 @
b11110100001000100110 L
0M
1O
b111000 P
1X
b0 Z
b100 \
b11 ]
b0 _
0a
0b
1d
1f
0i
0j
1v
b1100 w
1y
b1000 z
#260000
05
0X
0v
0y
#265000
0"
0#
0%
15
b111000 9
b10111 ;
b10000 ?
b0 @
b101 H
b11110100001000100101 L
0O
1X
b0 Z
b100 ]
b111000 ^
b0 _
0a
0b
1c
1d
1e
1f
1v
b10000 w
1y
b1100 z
b110100 |
b111111 }
#270000
05
0X
0v
0y
#275000
1!
1#
b110100 $
15
b111000 ;
b10100 ?
b0 @
b11110100001000100100 L
1M
b110100 N
1X
b0 Z
b101 ]
b0 _
0a
0b
1d
1f
1v
b10000 w
1y
b10000 z
#280000
05
0X
0v
0y
#285000
0!
1"
0#
1%
b111111 &
15
b10100 :
b11000 ?
b0 @
b11110100001000100011 L
0M
1O
b111111 P
1X
b0 Z
b101 \
b110 ]
b0 _
0a
0b
1d
1f
0i
0j
1v
b10000 w
1y
b10100 z
#290000
05
0X
0v
0y
#295000
0"
0#
0%
15
b111111 9
b111000 ;
b11100 ?
b0 @
b110 H
b11110100001000100010 L
0O
1X
b0 Z
b111 ]
b111111 ^
b0 _
0a
0b
1c
1d
1e
1f
1v
b10100 w
1y
b11000 z
b111000 |
b111000 }
#300000
05
0X
0v
0y
#305000
1!
1#
b111000 $
15
b111111 ;
b100000 ?
b0 @
b11110100001000100001 L
1M
b111000 N
1X
b0 Z
b1000 ]
b0 _
0a
0b
1d
1f
1v
b10100 w
1y
b11100 z
#310000
05
0X
0v
0y
#315000
0!
1"
0#
1%
b111000 &
15
b11000 :
b100100 ?
b0 @
b11110100001000100000 L
0M
1O
b111000 P
1X
b0 Z
b110 \
b1001 ]
b0 _
0a
0b
1d
1f
0i
0j
1v
b10100 w
1y
b100000 z
#320000
05
0X
0v
0y
#325000
0"
0#
0%
15
b111000 9
b111111 ;
b101000 ?
b0 @
b111 H
b11110100001000011111 L
0O
1X
b0 Z
b1010 ]
b111000 ^
b0 _
0a
0b
1c
1d
1e
1f
1v
b11000 w
1y
b100100 z
b111100 |
b10111 }
#330000
05
0X
0v
0y
#335000
1!
1#
b111100 $
15
b111000 ;
b0 ?
b0 @
b11110100001000011110 L
1M
b111100 N
1X
b0 Z
b0 ]
b0 _
0a
0b
1d
1f
1v
b11000 w
1y
b101000 z
#340000
05
0X
0v
0y
#345000
0!
1"
0#
1%
b10111 &
15
b11100 :
b100 ?
b0 @
b11110100001000011101 L
0M
1O
b10111 P
1X
b0 Z
b111 \
b1 ]
b0 _
0a
0b
1d
1f
0i
0j
1v
b11000 w
1y
b0 z
#350000
05
0X
0v
0y
#355000
0"
0#
0%
15
b10111 9
b111000 ;
b1000 ?
b0 @
b1000 H
b11110100001000011100 L
0O
1X
b0 Z
b10 ]
b10111 ^
b0 _
0a
0b
1c
1d
1e
1f
1v
b11100 w
1y
b100 z
b1000000 |
b11111111111111111111111111110111 }
#360000
05
0X
0v
0y
#365000
1!
1#
b1000000 $
15
b10111 ;
b1100 ?
b0 @
b11110100001000011011 L
1M
b1000000 N
1X
b0 Z
b11 ]
b0 _
0a
0b
1d
1f
1v
b11100 w
1y
b1000 z
#370000
05
0X
0v
0y
#375000
0!
1"
0#
1%
b11111111111111111111111111110111 &
15
b100000 :
b10000 ?
b0 @
b11110100001000011010 L
0M
1O
b11111111111111111111111111110111 P
1X
b0 Z
b1000 \
b100 ]
b0 _
0a
0b
1d
1f
0i
0j
1v
b11100 w
1y
b1100 z
#380000
05
0X
0v
0y
#385000
0"
0#
0%
15
b11111111111111111111111111110111 9
b10111 ;
b10100 ?
b0 @
b1001 H
b11110100001000011001 L
0O
1X
b0 Z
b101 ]
b11111111111111111111111111110111 ^
b0 _
0a
0b
1c
1d
1e
1f
1v
b100000 w
1y
b10000 z
b1000100 |
b11111111111111111111111111110110 }
#390000
05
0X
0v
0y
#395000
1!
1#
b1000100 $
15
b11111111111111111111111111110111 ;
b11000 ?
b0 @
b11110100001000011000 L
1M
b1000100 N
1X
b0 Z
b110 ]
b0 _
0a
0b
1d
1f
1v
b100000 w
1y
b10100 z
#400000
05
0X
0v
0y
#405000
0!
1"
0#
1%
b11111111111111111111111111110110 &
15
b100100 :
b11100 ?
b0 @
b11110100001000010111 L
0M
1O
b11111111111111111111111111110110 P
1X
b0 Z
b1001 \
b111 ]
b0 _
0a
0b
1d
1f
0i
0j
1v
b100000 w
1y
b11000 z
#410000
05
0X
0v
0y
#415000
0"
0#
0%
15
b11111111111111111111111111110110 9
b11111111111111111111111111110111 ;
b100000 ?
b0 @
b1010 H
b11110100001000010110 L
0O
1X
b0 Z
b1000 ]
b11111111111111111111111111110110 ^
b0 _
0a
0b
1c
1d
1e
1f
1v
b100100 w
1y
b11100 z
b1001000 |
b0 }
#420000
05
0X
0v
0y
#425000
1!
1#
b1001000 $
15
b11111111111111111111111111110110 ;
b100100 ?
b0 @
b11110100001000010101 L
1M
b1001000 N
1X
b0 Z
b1001 ]
b0 _
0a
0b
1d
1f
1v
b100100 w
1y
b100000 z
#430000
05
0X
0v
0y
#435000
0!
1"
0#
1%
b0 &
15
b101000 :
b101000 ?
b0 @
b11110100001000010100 L
0M
1O
b0 P
1X
b0 Z
b1010 \
b1010 ]
b0 _
0a
0b
1d
1f
0i
0j
1v
b100100 w
1y
b100100 z
#440000
05
0X
0v
0y
#445000
b0 !!
0"
b11111111111111111111111111111111 "!
0#
0%
0(
0)
15
b0 9
b11111111111111111111111111110110 ;
b0 ?
b0 @
b0 H
b11110100001000010011 L
0O
1X
b0 Z
b0 ]
b0 ^
b0 _
0a
0b
1c
1d
1e
1f
1v
b101000 w
1y
b101000 z
b100000 ~
#450000
05
0X
0v
0y
#455000
1'
1)
b100000 *
15
b0 ;
b100 ?
b0 @
b11110100001000010010 L
1R
b100000 S
1X
b0 Z
b1 ]
b0 _
0a
0b
1d
1f
1v
b101000 w
1y
b0 z
#460000
05
0X
0v
0y
#465000
0'
1(
0)
15
b0 7
b0 :
b1000 ?
b0 @
b11110100001000010001 L
1Q
0R
1X
b0 Z
b0 \
b10 ]
b0 _
0a
0b
1c
1d
0e
1f
0i
0j
1v
b101000 w
1y
b100 z
#470000
05
0X
0v
0y
#475000
b0 ,
15
b0 ;
b1100 ?
b0 @
b11110100001000010000 L
1X
b0 Z
b11 ]
b0 _
b0 `
1a
0b
1d
1f
1v
b0 w
1y
b1000 z
#480000
05
0X
0v
0y
#485000
1+
15
b10000 ?
b0 @
b11110100001000001111 L
1X
b0 Z
b100 ]
b0 _
b0 `
1a
1b
1d
1f
1v
b0 w
1y
b1100 z
#490000
05
0X
0v
0y
#495000
b11111111111111111111111111110110 !!
b11111111111111111111111111111111 "!
0(
0)
15
b10100 ?
b0 @
b1 H
b11110100001000001110 L
0Q
1X
b0 Z
b101 ]
b0 _
b0 `
1a
1b
1d
1f
1v
b0 w
1y
b10000 z
b100100 ~
#500000
05
0X
0v
0y
#505000
1'
1)
b100100 *
15
b11000 ?
b0 @
b11110100001000001101 L
1R
b100100 S
1X
b0 Z
b110 ]
b0 _
0a
1b
1d
1f
1v
b0 w
1y
b10100 z
#510000
05
0X
0v
0y
#515000
0'
1(
0)
0+
15
b100 :
b11100 ?
b0 @
b11110100001000001100 L
1Q
0R
1X
b0 Z
b1 \
b111 ]
b0 _
0a
0b
1c
1d
0e
1f
0i
0j
1v
b0 w
1y
b11000 z
#520000
05
0X
0v
0y
#525000
15
b11111111111111111111111111110110 ;
b100000 ?
b0 @
b11110100001000001011 L
1X
b0 Z
b1000 ]
b0 _
b0 `
1a
0b
1d
1f
1v
b100 w
1y
b11100 z
#530000
05
0X
0v
0y
#535000
1+
b11111111111111111111111111110110 ,
15
b100100 ?
b0 @
b11110100001000001010 L
1X
b0 Z
b1001 ]
b0 _
b11111111111111111111111111110110 `
1a
1b
1d
1f
1v
b100 w
1y
b100000 z
#540000
05
0X
0v
0y
#545000
b11111111111111111111111111110111 !!
b11111111111111111111111111111111 "!
0(
0)
15
b101000 ?
b0 @
b10 H
b11110100001000001001 L
0Q
1X
b0 Z
b1010 ]
b0 _
b11111111111111111111111111110110 `
1a
1b
1d
1f
1v
b100 w
1y
b100100 z
b101000 ~
#550000
05
0X
0v
0y
#555000
1'
1)
b101000 *
15
b0 ?
b0 @
b11110100001000001000 L
1R
b101000 S
1X
b0 Z
b0 ]
b0 _
0a
1b
1d
1f
1v
b100 w
1y
b101000 z
#560000
05
0X
0v
0y
#565000
0'
1(
0)
0+
15
b1000 :
b100 ?
b0 @
b11110100001000000111 L
1Q
0R
1X
b0 Z
b10 \
b1 ]
b0 _
0a
0b
1c
1d
0e
1f
0i
0j
1v
b100 w
1y
b0 z
#570000
05
0X
0v
0y
#575000
15
b11111111111111111111111111110111 ;
b1000 ?
b0 @
b11110100001000000110 L
1X
b0 Z
b10 ]
b0 _
b11111111111111111111111111110110 `
1a
0b
1d
1f
1v
b1000 w
1y
b100 z
#580000
05
0X
0v
0y
#585000
1+
b11111111111111111111111111110111 ,
15
b1100 ?
b0 @
b11110100001000000101 L
1X
b0 Z
b11 ]
b0 _
b11111111111111111111111111110111 `
1a
1b
1d
1f
1v
b1000 w
1y
b1000 z
#590000
05
0X
0v
0y
#595000
b10111 !!
b11111111111111111111111111111111 "!
0(
0)
15
b10000 ?
b0 @
b11 H
b11110100001000000100 L
0Q
1X
b0 Z
b100 ]
b0 _
b11111111111111111111111111110111 `
1a
1b
1d
1f
1v
b1000 w
1y
b1100 z
b101100 ~
#600000
05
0X
0v
0y
#605000
1'
1)
b101100 *
15
b10100 ?
b0 @
b11110100001000000011 L
1R
b101100 S
1X
b0 Z
b101 ]
b0 _
0a
1b
1d
1f
1v
b1000 w
1y
b10000 z
#610000
05
0X
0v
0y
#615000
0'
1(
0)
0+
15
b1100 :
b11000 ?
b0 @
b11110100001000000010 L
1Q
0R
1X
b0 Z
b11 \
b110 ]
b0 _
0a
0b
1c
1d
0e
1f
0i
0j
1v
b1000 w
1y
b10100 z
#620000
05
0X
0v
0y
#625000
15
b10111 ;
b11100 ?
b0 @
b11110100001000000001 L
1X
b0 Z
b111 ]
b0 _
b11111111111111111111111111110111 `
1a
0b
1d
1f
1v
b1100 w
1y
b11000 z
#630000
05
0X
0v
0y
#635000
1+
b10111 ,
15
b100000 ?
b0 @
b11110100001000000000 L
1X
b0 Z
b1000 ]
b0 _
b10111 `
1a
1b
1d
1f
1v
b1100 w
1y
b11100 z
#640000
05
0X
0v
0y
#645000
b111000 !!
b11111111111111111111111111111111 "!
0(
0)
15
b100100 ?
b0 @
b100 H
b11110100000111111111 L
0Q
1X
b0 Z
b1001 ]
b0 _
b10111 `
1a
1b
1d
1f
1v
b1100 w
1y
b100000 z
b110000 ~
#650000
05
0X
0v
0y
#655000
1'
1)
b110000 *
15
b101000 ?
b0 @
b11110100000111111110 L
1R
b110000 S
1X
b0 Z
b1010 ]
b0 _
0a
1b
1d
1f
1v
b1100 w
1y
b100100 z
#660000
05
0X
0v
0y
#665000
0'
1(
0)
0+
15
b10000 :
b0 ?
b0 @
b11110100000111111101 L
1Q
0R
1X
b0 Z
b100 \
b0 ]
b0 _
0a
0b
1c
1d
0e
1f
0i
0j
1v
b1100 w
1y
b101000 z
#670000
05
0X
0v
0y
#675000
15
b111000 ;
b100 ?
b0 @
b11110100000111111100 L
1X
b0 Z
b1 ]
b0 _
b10111 `
1a
0b
1d
1f
1v
b10000 w
1y
b0 z
#680000
05
0X
0v
0y
#685000
1+
b111000 ,
15
b1000 ?
b0 @
b11110100000111111011 L
1X
b0 Z
b10 ]
b0 _
b111000 `
1a
1b
1d
1f
1v
b10000 w
1y
b100 z
#690000
05
0X
0v
0y
#695000
b111111 !!
b11111111111111111111111111111111 "!
0(
0)
15
b1100 ?
b0 @
b101 H
b11110100000111111010 L
0Q
1X
b0 Z
b11 ]
b0 _
b111000 `
1a
1b
1d
1f
1v
b10000 w
1y
b1000 z
b110100 ~
#700000
05
0X
0v
0y
#705000
1'
1)
b110100 *
15
b10000 ?
b0 @
b11110100000111111001 L
1R
b110100 S
1X
b0 Z
b100 ]
b0 _
0a
1b
1d
1f
1v
b10000 w
1y
b1100 z
#710000
05
0X
0v
0y
#715000
0'
1(
0)
0+
15
b10100 :
b10100 ?
b0 @
b11110100000111111000 L
1Q
0R
1X
b0 Z
b101 \
b101 ]
b0 _
0a
0b
1c
1d
0e
1f
0i
0j
1v
b10000 w
1y
b10000 z
#720000
05
0X
0v
0y
#725000
15
b111111 ;
b11000 ?
b0 @
b11110100000111110111 L
1X
b0 Z
b110 ]
b0 _
b111000 `
1a
0b
1d
1f
1v
b10100 w
1y
b10100 z
#730000
05
0X
0v
0y
#735000
1+
b111111 ,
15
b11100 ?
b0 @
b11110100000111110110 L
1X
b0 Z
b111 ]
b0 _
b111111 `
1a
1b
1d
1f
1v
b10100 w
1y
b11000 z
#740000
05
0X
0v
0y
#745000
b111000 !!
b11111111111111111111111111111111 "!
0(
0)
15
b100000 ?
b0 @
b110 H
b11110100000111110101 L
0Q
1X
b0 Z
b1000 ]
b0 _
b111111 `
1a
1b
1d
1f
1v
b10100 w
1y
b11100 z
b111000 ~
#750000
05
0X
0v
0y
#755000
1'
1)
b111000 *
15
b100100 ?
b0 @
b11110100000111110100 L
1R
b111000 S
1X
b0 Z
b1001 ]
b0 _
0a
1b
1d
1f
1v
b10100 w
1y
b100000 z
#760000
05
0X
0v
0y
#765000
0'
1(
0)
0+
15
b11000 :
b101000 ?
b0 @
b11110100000111110011 L
1Q
0R
1X
b0 Z
b110 \
b1010 ]
b0 _
0a
0b
1c
1d
0e
1f
0i
0j
1v
b10100 w
1y
b100100 z
#770000
05
0X
0v
0y
#775000
15
b111000 ;
b0 ?
b0 @
b11110100000111110010 L
1X
b0 Z
b0 ]
b0 _
b111111 `
1a
0b
1d
1f
1v
b11000 w
1y
b101000 z
#780000
05
0X
0v
0y
#785000
1+
b111000 ,
15
b100 ?
b0 @
b11110100000111110001 L
1X
b0 Z
b1 ]
b0 _
b111000 `
1a
1b
1d
1f
1v
b11000 w
1y
b0 z
#790000
05
0X
0v
0y
#795000
b10111 !!
b11111111111111111111111111111111 "!
0(
0)
15
b1000 ?
b0 @
b111 H
b11110100000111110000 L
0Q
1X
b0 Z
b10 ]
b0 _
b111000 `
1a
1b
1d
1f
1v
b11000 w
1y
b100 z
b111100 ~
#800000
05
0X
0v
0y
#805000
1'
1)
b111100 *
15
b1100 ?
b0 @
b11110100000111101111 L
1R
b111100 S
1X
b0 Z
b11 ]
b0 _
0a
1b
1d
1f
1v
b11000 w
1y
b1000 z
#810000
05
0X
0v
0y
#815000
0'
1(
0)
0+
15
b11100 :
b10000 ?
b0 @
b11110100000111101110 L
1Q
0R
1X
b0 Z
b111 \
b100 ]
b0 _
0a
0b
1c
1d
0e
1f
0i
0j
1v
b11000 w
1y
b1100 z
#820000
05
0X
0v
0y
#825000
15
b10111 ;
b10100 ?
b0 @
b11110100000111101101 L
1X
b0 Z
b101 ]
b0 _
b111000 `
1a
0b
1d
1f
1v
b11100 w
1y
b10000 z
#830000
05
0X
0v
0y
#835000
1+
b10111 ,
15
b11000 ?
b0 @
b11110100000111101100 L
1X
b0 Z
b110 ]
b0 _
b10111 `
1a
1b
1d
1f
1v
b11100 w
1y
b10100 z
#840000
05
0X
0v
0y
#845000
b11111111111111111111111111110111 !!
b11111111111111111111111111111111 "!
0(
0)
15
b11100 ?
b0 @
b1000 H
b11110100000111101011 L
0Q
1X
b0 Z
b111 ]
b0 _
b10111 `
1a
1b
1d
1f
1v
b11100 w
1y
b11000 z
b1000000 ~
#850000
05
0X
0v
0y
#855000
1'
1)
b1000000 *
15
b100000 ?
b0 @
b11110100000111101010 L
1R
b1000000 S
1X
b0 Z
b1000 ]
b0 _
0a
1b
1d
1f
1v
b11100 w
1y
b11100 z
#860000
05
0X
0v
0y
#865000
0'
1(
0)
0+
15
b100000 :
b100100 ?
b0 @
b11110100000111101001 L
1Q
0R
1X
b0 Z
b1000 \
b1001 ]
b0 _
0a
0b
1c
1d
0e
1f
0i
0j
1v
b11100 w
1y
b100000 z
#870000
05
0X
0v
0y
#875000
15
b11111111111111111111111111110111 ;
b101000 ?
b0 @
b11110100000111101000 L
1X
b0 Z
b1010 ]
b0 _
b10111 `
1a
0b
1d
1f
1v
b100000 w
1y
b100100 z
#880000
05
0X
0v
0y
